0, 255, 0, 255
1, 255, 0, 255
2, 255, 0, 255
3, 255, 0, 255
4, 255, 0, 255
5, 255, 0, 255
6, 255, 0, 255
7, 255, 0, 255
8, 255, 0, 255
9, 255, 0, 255
10, 255, 0, 255
11, 255, 0, 255
12, 255, 0, 255
13, 255, 0, 255
14, 255, 0, 255
15, 255, 0, 255
16, 255, 0, 255
17, 255, 0, 255
18, 255, 0, 255
19, 255, 0, 255
20, 255, 0, 255
21, 255, 0, 255
22, 255, 0, 255
23, 255, 0, 255
24, 255, 0, 255
